﻿<svg xmlns="http://www.w3.org/2000/svg" viewBox="0 0 120 80">
    <rect width="40" height="80" fill="#008d46" />
    <rect width="40" height="80" x="40" fill="#fafeff" />
    <rect width="40" height="80" x="80" fill="#d2232c" />
    <rect width="120" height="80" fill="none" stroke="#000" />
</svg>